…
    ## The following objects are masked from 'package:stats':
    ## 
    ##     filter, lag

    ## The following objects are masked from 'package:base':
    ## 
    ##     intersect, setdiff, setequal, union

    Total_Steps <- activity %>%
            group_by(date) %>%
            dplyr::summarize(Total_Steps=sum(steps, na.rm=TRUE))
    Total_Steps

    ## # A tibble: 61 x 2
    ##    date       Total_Steps
    ##    <fct>            <int>
    ##  1 2012-10-01           0
    ##  2 2012-10-02         126
    ##  3 2012-10-03       11352
    ##  4 2012-10-04       12116
    ##  5 2012-10-05       13294
    ##  6 2012-10-06       15420
    ##  7 2012-10-07       11015
    ##  8 2012-10-08           0
    ##  9 2012-10-09       12811
    ## 10 2012-10-10        9900
    ## # … with 51 more rows
…
